…
tress_by_species <- count_events(vancouver_trees, genus_name, species_name)
```

```
## `summarise()` has grouped output by 'genus_name'. You can override using the
## `.groups` argument.
```

```r
print(tress_by_species)
```

```
## # A tibble: 95 × 3
##    genus_name species_name   count
##    <chr>      <chr>          <int>
##  1 ACER       CAMPESTRE       1104
##  2 ACER       CAPPADOCICUM     205
##  3 ACER       FREEMANI   X    3015
##  4 ACER       NIGRUM            69
##  5 ACER       PALMATUM         480
##  6 ACER       PLATANOIDES     4298
##  7 ACER       PSEUDOPLATANUS    16
##  8 ACER       RUBRUM          3517
##  9 ACER       TEGMENTOSUM       11
## 10 ACER       TRUNCATUM       1469
## # ℹ 85 more rows
```
…
headtype_by_location <- count_events(parking_meters, geo_local_area, meter_head)
```

```
## `summarise()` has grouped output by 'geo_local_area'. You can override using
## the `.groups` argument.
```

```r
print(headtype_by_location)
```

```
## # A tibble: 48 × 3
##    geo_local_area     meter_head          count
##    <chr>              <chr>               <int>
##  1 Arbutus-Ridge      Single Motorbike        1
##  2 Downtown           Pay Station            16
##  3 Downtown           Single                  7
##  4 Downtown           Single / Disability     1
##  5 Downtown           Single Motorbike       57
##  6 Downtown           Twin                   17
##  7 Fairview           Pay Station             2
##  8 Fairview           Single Motorbike       13
##  9 Fairview           Twin                    5
## 10 Grandview-Woodland Pay Station            19
## # ℹ 38 more rows
```
…
